%YAML 1.1
%TAG !u! tag:unity3d.com,2011:
--- !u!687078895 &4343727234628468602
SpriteAtlas:
  m_ObjectHideFlags: 0
  m_CorrespondingSourceObject: {fileID: 0}
  m_PrefabInstance: {fileID: 0}
  m_PrefabAsset: {fileID: 0}
  m_Name: 2D
  m_EditorData:
    serializedVersion: 2
    textureSettings:
      serializedVersion: 2
      anisoLevel: 1
      compressionQuality: 50
      maxTextureSize: 2048
      textureCompression: 0
      filterMode: 1
      generateMipMaps: 0
      readable: 0
      crunchedCompression: 0
      sRGB: 1
    platformSettings:
    - serializedVersion: 3
      m_BuildTarget: DefaultTexturePlatform
      m_MaxTextureSize: 2048
      m_ResizeAlgorithm: 0
      m_TextureFormat: -1
      m_TextureCompression: 1
      m_CompressionQuality: 100
      m_CrunchedCompression: 1
      m_AllowsAlphaSplitting: 0
      m_Overridden: 0
      m_AndroidETC2FallbackOverride: 0
      m_ForceMaximumCompressionQuality_BC6H_BC7: 0
    packingSettings:
      serializedVersion: 2
      padding: 4
      blockOffset: 1
      allowAlphaSplitting: 0
      enableRotation: 0
      enableTightPacking: 0
      enableAlphaDilation: 0
    secondaryTextureSettings: {}
    variantMultiplier: 1
    packables:
    - {fileID: 102900000, guid: 281682e10d2996948b9442e4ae49df2d, type: 3}
    bindAsDefault: 1
    isAtlasV2: 0
    cachedData: {fileID: 0}
  m_MasterAtlas: {fileID: 0}
  m_PackedSprites:
  - {fileID: 21300000, guid: 802349d310e8625478c6da32e529d7fa, type: 3}
  - {fileID: 21300000, guid: 5ce901f74c6a48e428cbfb39e39c2beb, type: 3}
  - {fileID: 21300000, guid: 7b3ec1f966ae1c744801ad97975204e3, type: 3}
  - {fileID: 21300000, guid: 73c7782a5de97b74ab6b93340879b087, type: 3}
  - {fileID: 21300000, guid: f73163ba4a96847c3b5cb230c2a75a68, type: 3}
  m_PackedSpriteNamesToIndex:
  - health
  - button_pressed
  - health_base
  - button_normal
  - score_base
  m_RenderDataMap: {}
  m_Tag: 2D
  m_IsVariant: 0
